{
    "KPlugin": {
        "Authors": [
            {
                "Name": "Nicolas Fella",
                "Name[ca@valencia]": "Nicolas Fella",
                "Name[ca]": "Nicolas Fella",
                "Name[cs]": "Nicolas Fella",
                "Name[da]": "Nicolas Fella",
                "Name[de]": "Nicolas Fella",
                "Name[el]": "Nicolas Fella",
                "Name[en_GB]": "Nicolas Fella",
                "Name[eo]": "Nicolas Fella",
                "Name[es]": "Nicolas Fella",
                "Name[et]": "Nicolas Fella",
                "Name[eu]": "Nicolas Fella",
                "Name[fi]": "Nicolas Fella",
                "Name[fr]": "Nicolas Fella",
                "Name[gl]": "Nicolas Fella",
                "Name[ia]": "Nicolas Fella",
                "Name[it]": "Nicolas Fella",
                "Name[ka]": "Nicolas Fella",
                "Name[ko]": "Nicolas Fella",
                "Name[nl]": "Nicolas Fella",
                "Name[pl]": "Nicolas Fella",
                "Name[pt]": "Nicolas Fella",
                "Name[pt_BR]": "Nicolas Fella",
                "Name[sk]": "Nicolas Fella",
                "Name[sl]": "Nicolas Fella",
                "Name[sv]": "Nicolas Fella",
                "Name[tr]": "Nicolas Fella",
                "Name[uk]": "Nicolas Fella",
                "Name[x-test]": "xxNicolas Fellaxx",
                "Name[zh_CN]": "Nicolas Fella",
                "Name[zh_TW]": "Nicolas Fella"
            }
        ],
        "Category": "Utilities",
        "Description": "Upload with Choqok",
        "Description[ca@valencia]": "Puja amb Choqok",
        "Description[ca]": "Puja amb el Choqok",
        "Description[cs]": "Odeslat pomocí Choqok",
        "Description[da]": "Upload med Choqok",
        "Description[de]": "Mit Choqok hochladen",
        "Description[el]": "Αποστολή με το Choqok",
        "Description[en_GB]": "Upload with Choqok",
        "Description[eo]": "Alŝutu kun Choqok",
        "Description[es]": "Subir con Choqok",
        "Description[et]": "Üleslaadimine Choqoki abil",
        "Description[eu]": "Zama-igo Choqok erabiliz",
        "Description[fi]": "Lähetä Choqokilla",
        "Description[fr]": "Télécharger avec Choqok",
        "Description[gl]": "Envío con Choqok.",
        "Description[ia]": "Incarga con Choqok",
        "Description[it]": "Carica con Choqok",
        "Description[ka]": "Choqok-ით ატვირთვა",
        "Description[ko]": "Choqok으로 업로드",
        "Description[nl]": "Met Choqok uploaden",
        "Description[pl]": "Wyślij przez Choqok",
        "Description[pt]": "Enviar com o Choqok",
        "Description[pt_BR]": "Enviar com o Choqok",
        "Description[sk]": "Nahrať cez Choqok",
        "Description[sl]": "Prenesi s Chokoq-om",
        "Description[sv]": "Ladda upp med Choqok",
        "Description[tr]": "Choqok ile Karşıya Yükle",
        "Description[uk]": "Вивантажити за допомогою Choqok",
        "Description[x-test]": "xxUpload with Choqokxx",
        "Description[zh_CN]": "用 Choqok 上传",
        "Description[zh_TW]": "用 Choqok 上傳",
        "Icon": "choqok",
        "License": "GPL",
        "Name": "Upload with Choqok",
        "Name[ca@valencia]": "Puja amb Choqok",
        "Name[ca]": "Puja amb el Choqok",
        "Name[cs]": "Odeslat pomocí Choqok",
        "Name[da]": "Upload med Choqok",
        "Name[de]": "Mit Choqok hochladen",
        "Name[el]": "Αποστολή με το Choqok",
        "Name[en_GB]": "Upload with Choqok",
        "Name[eo]": "Alŝutu kun Choqok",
        "Name[es]": "Subir con Choqok",
        "Name[et]": "Üleslaadimine Choqoki abil",
        "Name[eu]": "Zama-igo Choqok erabiliz",
        "Name[fi]": "Lähetä Choqokilla",
        "Name[fr]": "Télécharger avec Choqok",
        "Name[gl]": "Envío co Choqok",
        "Name[ia]": "Incarga con Choqok",
        "Name[it]": "Carica con Choqok",
        "Name[ka]": "Choqok-ით ატვირთვა",
        "Name[ko]": "Choqok으로 업로드",
        "Name[nl]": "Met Choqok uploaden",
        "Name[pl]": "Wyślij przez Choqok",
        "Name[pt]": "Enviar com o Choqok",
        "Name[pt_BR]": "Enviar com o Choqok",
        "Name[sk]": "Nahrať cez Choqok",
        "Name[sl]": "Prenesi s Chokoq-om",
        "Name[sv]": "Ladda upp med Choqok",
        "Name[tr]": "Choqok ile Karşıya Yükle",
        "Name[uk]": "Вивантажити за допомогою Choqok",
        "Name[x-test]": "xxUpload with Choqokxx",
        "Name[zh_CN]": "用 Choqok 上传",
        "Name[zh_TW]": "用 Choqok 上傳",
        "X-Purpose-ActionDisplay": "Upload with Choqok...",
        "X-Purpose-ActionDisplay[ca@valencia]": "Puja amb Choqok…",
        "X-Purpose-ActionDisplay[ca]": "Puja amb el Choqok...",
        "X-Purpose-ActionDisplay[cs]": "Odeslat pomocí Choqok...",
        "X-Purpose-ActionDisplay[de]": "Mit Choqok hochladen ...",
        "X-Purpose-ActionDisplay[en_GB]": "Upload with Choqok...",
        "X-Purpose-ActionDisplay[eo]": "Alŝutu per Choqok...",
        "X-Purpose-ActionDisplay[es]": "Subir con Choqok...",
        "X-Purpose-ActionDisplay[eu]": "Zama-igo Choqok erabiliz...",
        "X-Purpose-ActionDisplay[fi]": "Lähetä Choqokilla…",
        "X-Purpose-ActionDisplay[fr]": "Envoyer avec Choqok...",
        "X-Purpose-ActionDisplay[gl]": "Enviar con Choqok…",
        "X-Purpose-ActionDisplay[ia]": "Incarga con Choqok...",
        "X-Purpose-ActionDisplay[it]": "Carica con Choqok...",
        "X-Purpose-ActionDisplay[ka]": "ატვირთვა Choqok-ით...",
        "X-Purpose-ActionDisplay[ko]": "Choqok으로 업로드...",
        "X-Purpose-ActionDisplay[nl]": "Met Choqok uploaden...",
        "X-Purpose-ActionDisplay[pl]": "Wyślij przez Choqok...",
        "X-Purpose-ActionDisplay[pt]": "Enviar com o Choqok...",
        "X-Purpose-ActionDisplay[pt_BR]": "Enviar com o Choqok...",
        "X-Purpose-ActionDisplay[sl]": "Prenesi s Chokoq-om...",
        "X-Purpose-ActionDisplay[sv]": "Ladda upp med Choqok...",
        "X-Purpose-ActionDisplay[tr]": "Choqok ile Karşıya Yükle...",
        "X-Purpose-ActionDisplay[uk]": "Вивантажити за допомогою Choqok…",
        "X-Purpose-ActionDisplay[x-test]": "xxUpload with Choqok...xx",
        "X-Purpose-ActionDisplay[zh_TW]": "用 Choqok 上傳..."
    },
    "X-Purpose-Configuration": [],
    "X-Purpose-Constraints": [
        [
            "mimeType:image/*"
        ]
    ],
    "X-Purpose-PluginTypes": [
        "Export"
    ]
}
