{
    "KPlugin": {
        "Authors": [
            {
                "Email": "pulmro@gmail.com",
                "Name": "Emanuele Bigiarini",
                "Name[ca@valencia]": "Emanuele Bigiarini",
                "Name[ca]": "Emanuele Bigiarini",
                "Name[cs]": "Emanuele Bigiarini",
                "Name[de]": "Emanuele Bigiarini",
                "Name[en_GB]": "Emanuele Bigiarini",
                "Name[eo]": "Emanuele Bigiarini",
                "Name[es]": "Emanuele Bigiarini",
                "Name[fi]": "Emanuele Bigiarini",
                "Name[fr]": "Emanuele Bigiarini",
                "Name[gl]": "Emanuele Bigiarini",
                "Name[ia]": "Emanuele Bigiarini",
                "Name[it]": "Emanuele Bigiarini",
                "Name[ka]": "Emanuele Bigiarini",
                "Name[ko]": "Emanuele Bigiarini",
                "Name[nl]": "Emanuele Bigiarini",
                "Name[pl]": "Emanuele Bigiarini",
                "Name[pt]": "Emanuele Bigiarini",
                "Name[pt_BR]": "Emanuele Bigiarini",
                "Name[sl]": "Emanuele Bigiarini",
                "Name[sv]": "Emanuele Bigiarini",
                "Name[tr]": "Emanuele Bigiarini",
                "Name[uk]": "Emanuele Bigiarini",
                "Name[x-test]": "xxEmanuele Bigiarinixx",
                "Name[zh_TW]": "Emanuele Bigiarini"
            }
        ],
        "Description": "Post to Choqok the selected text in Konqueror, and other features",
        "Description[ca@valencia]": "Publica a Choqok el text seleccionat en Konqueror i altres característiques",
        "Description[ca]": "Publica al Choqok el text seleccionat al Konqueror i altres funcionalitats",
        "Description[cs]": "Odešle Choqok vybraný text v Konqueror, a další prvek",
        "Description[de]": "Ausgewählten Text in Konqueror über Choqok senden und andere Funktionen",
        "Description[en_GB]": "Post to Choqok the selected text in Konqueror, and other features",
        "Description[eo]": "Afiŝu al Choqok la elektitan tekston en Konqueror, kaj aliajn funkciojn",
        "Description[es]": "Publicar en Choqok el texto seleccionado en Konqueror y otras funcionalidades",
        "Description[fi]": "Lähetä Konquerorissa valittu teksti Choqokilla – ja muita ominaisuuksia",
        "Description[fr]": "Envoyer à Choqok le texte sélectionné dans Konqueror et bien d'autres fonctionnalités",
        "Description[gl]": "Publicar con Choqok o texto seleccionado en Konqueror e outras funcionalidades.",
        "Description[it]": "Pubblica in Choqok il testo selezionato in Konqueror e altre caratteristiche",
        "Description[ka]": "ჩააკოპირეთ Choqok -ში მონიშნული ტექსტი Konqueror-დან და სხვა ფუნქციები",
        "Description[ko]": "Konqueror에서 선택한 텍스트를 Choqok에 게시 및 기타 기능",
        "Description[nl]": "Post geselecteerde tekst in Konqueror naar Choqok en overige mogelijkheden",
        "Description[pl]": "Wyślij wybrany tekst z konquerora do Choqok oraz inne funkcje",
        "Description[pt]": "Publicar no Choqok o texto seleccionado no Konqueror, entre outras funcionalidades",
        "Description[pt_BR]": "Publica no Choqok o texto selecionado no Konqueror e outros recursos",
        "Description[sl]": "Objavi v Choqok izbrano besedilo v Konquerorju in druge zmožnosti",
        "Description[sv]": "Skicka markerad text i Konqueror till Choqok, och andra funktioner",
        "Description[tr]": "Konqueror'da seçili metni Choqok'a gönderir",
        "Description[uk]": "Передавання до Choqok позначеного фрагмента тексту у Konqueror та інші можливості",
        "Description[x-test]": "xxPost to Choqok the selected text in Konqueror, and other featuresxx",
        "Description[zh_TW]": "將 Konqueror 中所選文字透過 Choqok 貼文，以及其他功能",
        "EnabledByDefault": true,
        "Icon": "choqok",
        "Id": "konqchoqokplugin",
        "License": "GPL",
        "Name": "Konqueror Choqok Plugin",
        "Name[ca@valencia]": "Connector Choqok de Konqueror",
        "Name[ca]": "Connector Choqok del Konqueror",
        "Name[cs]": "Zásuvný modul Choqok pro Konqueror",
        "Name[de]": "Choqok-Modul für Konqueror",
        "Name[en_GB]": "Konqueror Choqok Plugin",
        "Name[eo]": "Konqueror Choqok Kromaĵo",
        "Name[es]": "Complemento para Konqueror Choqok",
        "Name[fi]": "Konquerorin Choqok-liitännäinen",
        "Name[fr]": "Module externe de Konqueror pour Choqok",
        "Name[gl]": "Complemento de Konqueror para o ChoqoK",
        "Name[it]": "Estensione Choqok per Konqueror",
        "Name[ka]": "Choqok -ის დამატება Konqueror-სთვის",
        "Name[ko]": "Konqueror Choqok 플러그인",
        "Name[nl]": "Choqok-plugin voor Konqueror",
        "Name[pl]": "Wtyczka Konqueror Choqok",
        "Name[pt]": "'Plugin' do Choqok para o Konqueror",
        "Name[pt_BR]": "Plugin do Choqok para o Konqueror",
        "Name[sl]": "Vtičnik Konqueror Choqok",
        "Name[sv]": "Choqok-insticksprogram för Konqueror",
        "Name[tr]": "Konqueror Choqok Eklentisi",
        "Name[uk]": "Додаток Choqok до Konqueror",
        "Name[x-test]": "xxKonqueror Choqok Pluginxx",
        "Name[zh_TW]": "Konqueror Choqok 外掛程式",
        "Version": "0.1"
    }
}
